{
  "app_name": "payment",
  "owner": "calopezb@redhat.com",
  "argo_config": {
    "branch": "master",
    "path": "deploy/payment/base",
    "prune": true,
    "selfHeal": true
  },
  "k8s_cluster": {
    "owner": "admin@redhat.com",
    "address": "https://kubernetes.default.svc",
    "namespace": "watches-eshop"
  }
}